"runtime"	"subjectID"	"initials"	"var1"	"value1"	"var2"	"value2"	"output"	"action"
"2017-09-18 20:48"	"L-003"	"EF"	"bp_syst"	NA	NA	NA	"systolic blood pressure is missing"	"confirmed or corrected"
"2017-09-18 20:48"	"L-005"	"HI"	"ageyr"	"8"	NA	NA	"age is below 10"	"confirmed or corrected"
"2017-09-18 20:48"	"L-002"	"CD"	"temperature"	"42"	NA	NA	"temperature is above 40"	"confirmed or corrected"
"2017-09-18 20:48"	"L-005"	"HI"	"sex"	"S"	NA	NA	"sex not M or F"	"confirmed or corrected"
