"Nr"	"subjectID"	"initials"	"scr_dt"	"ageyr"	"sex"	"temperature"	"bp_syst"	"vis1_dt"
1	"L-001"	"AB"	"2016-09-01"	20	"M"	36	100	"2016-12-26"
2	"L-002"	"CD"	"2016-09-02"	56	"M"	42	101	"2016-12-27"
3	"L-003"	"EF"	"2016-09-03"	13	"F"	39	120	"2016-12-28"
4	"L-004"	"FG"	"2016-09-04"	100	"F"	39	103	"2016-12-29"
5	"L-005"	"HI"	"2016-09-05"	8	"M"	37	104	"2016-12-30"
6	"L-006"	"JK"	"2016-09-06"	45	"F"	NA	105	"2016-12-31"
7	"L-007"	"LM"	"2016-09-07"	57	"F"	35	106	"2017-01-01"
